…
Tidy Text Format
===


```r
library(tidytext); library(tidyverse)
text_df <- data_frame(line = 1:4, text = text)
text_df <- unnest_tokens(text_df, word, text)
text_df
```

```
# A tibble: 64 x 2
    line word       
   <int> <chr>      
 1     1 violence   
 2     1 is         
 3     1 the        
 4     1 last       
 5     1 refuge     
 6     1 of         
 7     1 the        
 8     1 incompetent
 9     2 the        
10     2 saddest    
# ... with 54 more rows
```

Format Advantages
===

```r
text_df %>% count(word, sort = TRUE)
```

```
# A tibble: 51 x 2
   word          n
   <chr>     <int>
 1 the           5
 2 is            3
 3 of            3
 4 gathers       2
 5 science       2
 6 that          2
 7 to            2
 8 who           2
 9 a             1
10 annoyance     1
# ... with 41 more rows
```

N-Grams!!
===


```r
text_df <- data_frame(line = 1:4, text = text)
text_df <- unnest_tokens(text_df, ngram, text, token = "ngrams", n =3)
text_df
```

```
# A tibble: 56 x 2
    line ngram             
   <int> <chr>             
 1     1 violence is the   
 2     1 is the last       
 3     1 the last refuge   
 4     1 last refuge of    
 5     1 refuge of the     
 6     1 of the incompetent
 7     2 the saddest aspect
 8     2 saddest aspect of 
 9     2 aspect of life    
10     2 of life right     
# ... with 46 more rows
```
…
```r
unigram_probs <- hacker_news_text %>%
  unnest_tokens(word, text) %>%
  count(word, sort = TRUE) %>%
  mutate(p = n / sum(n))

unigram_probs
```

```
# A tibble: 196,648 x 3
   word       n      p
   <chr>  <int>  <dbl>
 1 the   547784 0.0404
 2 to    380822 0.0281
 3 a     335134 0.0247
 4 of    269871 0.0199
 5 and   264712 0.0195
 6 i     232058 0.0171
 7 x27   219078 0.0162
 8 is    215909 0.0159
 9 that  213736 0.0158
10 it    201173 0.0148
# ... with 196,638 more rows
```
…
